reverse_path
sensor1_channels:	650	
sensor1_weight_radiance	289.341	
sensor1_sigma_radiance	3.60883	
sensor2_channels:	650	
sensor2_weight_radiance	207.092	
sensor2_sigma_radiance	2.60272	
sensor3_channels:	650	
sensor3_weight_radiance	72.5085	
sensor3_sigma_radiance	1.58401	
