v 0.0 0.0 0.0
v 10.0 10.0 0.0
v 10.0 0.0 0.0
v 0.0 10.0 0.0
v 10.0 0.0 40.0
v 10.0 10.0 40.0
v 0.0 10.0 40.0
v 0.0 0.0 40.0
vn 0.0 0.0 -1.0
vn 1.0 0.0 0.0
vn 0.0 1.0 0.0
vn 0.0 1.0 0.0
vn -1.0 0.0 0.0
f 1//1 2//1 3//1
f 4//1 2//1 1//1
f 3//2 2//2 5//2
f 5//2 2//2 6//2
f 2//3 4//3 6//3
f 6//3 4//3 7//3
f 1//4 3//4 8//4
f 8//4 3//4 5//4
f 4//5 1//5 7//5
f 7//5 1//5 8//5
