v -1.25 -1.25 -1.25
v 11.25 11.25 -1.25
v 11.25 -1.25 -1.25
v -1.25 11.25 -1.25
v 10.0 10.0 43.75
v 0.0 10.0 40.0
v 10.0 10.0 40.0
v 0.0 10.0 43.75
v 10.0 0.0 43.75
v 10.0 0.0 40.0
v 0.0 0.0 43.75
v 0.0 0.0 40.0
v -1.25 -1.25 43.75
v 11.25 -1.25 43.75
v -1.25 11.25 43.75
v 11.25 11.25 43.75
vn 0.0 0.0 -1.0
vn 0.0 -1.0 0.0
vn -1.0 0.0 0.0
vn 0.0 1.0 0.0
vn 1.0 0.0 0.0
vn 0.0 0.0 1.0
f 1//1 2//1 3//1
f 4//1 2//1 1//1
f 5//2 6//2 7//2
f 5//2 8//2 6//2
f 9//3 7//3 10//3
f 9//3 5//3 7//3
f 11//4 10//4 12//4
f 11//4 9//4 10//4
f 8//5 12//5 6//5
f 8//5 11//5 12//5
f 9//6 13//6 14//6
f 9//6 11//6 13//6
f 8//6 15//6 13//6
f 8//6 13//6 11//6
f 16//6 5//6 9//6
f 16//6 9//6 14//6
f 16//6 15//6 8//6
f 16//6 8//6 5//6
f 1//2 3//2 13//2
f 13//2 3//2 14//2
f 4//3 1//3 15//3
f 15//3 1//3 13//3
f 2//4 4//4 16//4
f 16//4 4//4 15//4
f 3//5 2//5 14//5
f 14//5 2//5 16//5
