lambda(nm):	650	
surface_of_laser0_weight	0	
surface_of_laser0_sigma	0	
surface_of_sensor_photodiode1_weight	0.0048	
surface_of_sensor_photodiode1_sigma	0.00069119	
surface_of_sensor_photodiode2_weight	0.0009	
surface_of_sensor_photodiode2_sigma	0.00029988	
cube_weight	0	
cube_sigma	0	
